# Datos de las 24 horas de un dia
BUFR_EDITION=4
001001 {código estacion}
001002 {código estacion}
001015 {nombre estación}
004001 {año}
004002 {mes}
004003 {dia}
103024
004004 {hora}
004005 {minuto}
012101 {temperatura}

