# Numero de días con precipitacion en algunos rangos
BUFR_EDITION=4
001001 {código estacion}
001002 {código estacion}
001015 {nombre estación}
004001 {año}
004002 {mes}
004003 {dia}
004004 {hora}
004005 {minuto}
102006 
008052 {Numero de días con}
008022 {Cantidad de día}


