# Numero de días con precipitacion en algunos rangos
DATASUBSET 1
001001 85 {código estacion}
001002 406 {código estacion}
001015 ARICA {nombre estación}
004001 2023 {año}
004002 11 {mes}
102008
008050 1
008020 3 
008050 2
008020 1 
008050 3
008020 8 
008050 4
008020 5 
008050 5
008020 1 
008050 6
008020 1 
008050 7
008020 1 
008050 8
008020 2 

