# Días con RR > 0.0
BUFR_EDITION=4
001001 {código estacion}
001002 {código estacion}
001015 {nombre estación}
004001 {año}
004002 {mes}
102000 {Descriptor de repeticiones}
031002 {Factor de replicaciones}
004003 {dia}
013011 {RRR}



